{
  "AWS_ACCOUNT_ID": "815750801735",
  "CLI_PROFILE": "default",
  "REGION": "us-east-2",
  "BUCKET": "com.theinnovart.web.lambdaauth",
  "MAX_AGE": "10",
  "CRYPTO_BYTE_SIZE": 128,
  "DDB_TABLE": "LambdAuthUsers",
  "IDENTITY_POOL_NAME": "LambdAuth",
  "DEVELOPER_PROVIDER_NAME": "login.theinnovart.myapp",
  "EXTERNAL_NAME": "PY Auth",
  "EMAIL_SOURCE": "wudi-ayuan@theinnovart.com",
  "VERIFICATION_PAGE": "https://s3.us-east-2.amazonaws.com/com.theinnovart.web.lambdaauth/verify.html",
  "RESET_PAGE": "https://s3.us-east-2.amazonaws.com/com.theinnovart.web.lambdaauth/reset.html",
  "IDENTITY_POOL_ID": "us-east-2:2a2ba57d-2bde-42b7-b82e-5e0139a4d679"
}
